-------------------------------------------------------------------------------
Test set: mx.lania.ejemplo.ciudades.control.ControladorCatalogosTest
-------------------------------------------------------------------------------
Tests run: 1, Failures: 0, Errors: 0, Skipped: 0, Time elapsed: 19.717 s - in mx.lania.ejemplo.ciudades.control.ControladorCatalogosTest
