/Users/jahircastilloochoa/Downloads/testspringci/src/main/java/mx/lania/ejemplo/ciudades/entidades/City.java
/Users/jahircastilloochoa/Downloads/testspringci/src/main/java/mx/lania/ejemplo/ciudades/entidades/Usuario.java
/Users/jahircastilloochoa/Downloads/testspringci/src/main/java/mx/lania/ejemplo/ciudades/Aplicacion.java
/Users/jahircastilloochoa/Downloads/testspringci/src/main/java/mx/lania/ejemplo/ciudades/control/ControladorCatalogos.java
/Users/jahircastilloochoa/Downloads/testspringci/src/main/java/mx/lania/ejemplo/ciudades/entidades/Country.java
/Users/jahircastilloochoa/Downloads/testspringci/src/main/java/mx/lania/ejemplo/ciudades/oad/OadUsuarios.java
/Users/jahircastilloochoa/Downloads/testspringci/src/main/java/mx/lania/ejemplo/ciudades/entidades/Countrylanguage.java
/Users/jahircastilloochoa/Downloads/testspringci/src/main/java/mx/lania/ejemplo/ciudades/oad/OadCountries.java
/Users/jahircastilloochoa/Downloads/testspringci/src/main/java/mx/lania/ejemplo/ciudades/oad/OadCities.java
